-992
-40 -24 912
40 -24 912
992
-8 -16 -24 -32 -40 832
992
-800 -160 16
992
144 -160 -40 -160 -96 -24 -16 -72 -24 184
-120 128 -64 -80 48 -120 -160 216
-32 -32 -32 -32 -32 -32 -32 -32 -32 -32 -32 -32 -32 -32 -32 -32 -32 -32 -32 -32 -32 -32 -32 -32 -32
