-40 944
-40 -24 912
40 -24 912
72 -24 880
464 -360 152
992
-888 8 -8 64
-160 -160 -160 -160 320
-992
-8 -16 -24 -32 -40 -48 -56 -64 -72 -80 -88 -96 -104 -112 -40
-256 -184 -8 48 -40 416
-8 -8 -8 -8 -8 8 -8 -8 -8 -8 -8 -8 800
